{
  "data": [
    {
      "id": 7,
      "company_id": 1,
      "name": "labor day",
      "type": "Regular",
      "date": "2018-09-04",
      "repeat_until": null,
      "affected_employees": [
        {
          "id": null,
          "name": "All employees",
          "type": "employee"
        }
      ]
    },
    {
      "id": 9,
      "company_id": 1,
      "name": "test entitlement",
      "type": "Special",
      "date": "2018-09-05",
      "repeat_until": null,
      "affected_employees": [
        {
          "id": 96,
          "name": "Doki M Oki - 1",
          "type": "employee"
        },
        {
          "id": 71,
          "name": "doding de puta",
          "type": "employee"
        },
        {
          "id": 72,
          "name": "Tonyo gago",
          "type": "employee"
        }
      ]
    },
    {
      "id": 10,
      "company_id": 1,
      "name": "test entitlement by group",
      "type": "Regular",
      "date": "2018-09-05",
      "repeat_until": null,
      "affected_employees": [
        {
          "id": null,
          "name": "All employees",
          "type": "position"
        },
        {
          "id": 75,
          "name": "Designer",
          "type": "position"
        }
      ]
    },
    {
      "id": 11,
      "company_id": 1,
      "name": "test entitlement by group",
      "type": "Special",
      "date": "2018-09-05",
      "repeat_until": null,
      "affected_employees": [
        {
          "id": 86,
          "name": "Engineering",
          "type": "department"
        }
      ]
    },
    {
      "id": 12,
      "company_id": 1,
      "name": "Makati day",
      "type": "Regular",
      "date": "2018-09-05",
      "repeat_until": null,
      "affected_employees": [
        {
          "id": 21,
          "name": "Makati day",
          "type": "location"
        }
      ]
    },
    {
      "id": 13,
      "company_id": 1,
      "name": "All Saints Day",
      "type": "Special",
      "date": "2018-11-01",
      "repeat_until": null,
      "affected_employees": [
        {
          "id": null,
          "name": "All Employees",
          "type": "employee"
        }
      ]
    },
    {
      "id": 14,
      "company_id": 1,
      "name": "All Souls Day",
      "type": "Special",
      "date": "2018-11-02",
      "repeat_until": null,
      "affected_employees": [
        {
          "id": null,
          "name": "All Employees",
          "type": "employee"
        }
      ]
    }
  ]
}
