{
    "employee_uid": 8124,
    "date": "2018-11-01",
    "pid": "c137579c-52dd-4bb7-9bfd-d31bf2f9dc0a",
    "id": 8124,
    "full_name": "Brad Jones Estrada",
    "company_id": 769,
    "employee_id": "Sep2018-006",
    "rank_id": 1134,
    "rank_name": "Rank",
    "position_id": 919,
    "position_name": "Staff",
    "department_id": 1156,
    "department_name": "HR",
    "location_id": null,
    "location_name": null,
    "hours_per_day": "12.00",
    "active": true,
    "time_attendance_id": 839,
    "team_id": 525,
    "team_name": "Engineering",
    "team_role": "",
    "primary_location_id": 866,
    "primary_location_name": "2018 Location",
    "secondary_location_id": null,
    "secondary_location_name": null,
    "timesheet_required": false,
    "overtime": true,
    "differential": true,
    "regular_holiday_pay": true,
    "special_holiday_pay": true,
    "holiday_premium_pay": true,
    "rest_day_pay": true,
    "shifts": [],
    "default_shift": {},
    "night_shift_settings": {},
    "hours_worked": [
        {
            "id":64,
            "employee_id": 8124,
            "date": "2018-11-01", 
            "type":"overtime",
            "type_name":"Overtime",
            "time": "02:00",
            "value":"0.50",
            "shift_id": 1,
            "start_datetime": "2018-11-01 16:00",
            "end_datetime": "2018-11-01 18:00"
        }
    ],
    "rest_days": [
      { 
         "id":3108,
         "company_id":769,
         "employee_id":8124,
         "start_date":"2018-11-01",
         "end_date":"2018-11-01",
         "employee": null,
         "dates":[ 
            "2018-11-01"
         ]
      } 
    ],
    "timesheet": [
    ],
    "tardiness_rule": {
        "id": 98,
        "name": "Whatever",
        "company_id": 1,
        "minutes_tardy": 15,
        "minutes_to_deduct": 0,
        "affected_employees": [
            {
                "id": null,
                "name": "All employees",
                "type": "employee"
            }
        ],
        "updated_at": "2018-10-10 08:35"
    },
    "shift_dates": {
        "2018-11-01": {
            "rest_day": true,
            "holiday_type": null
        }
    }
}
