{
    "employee_uid": 1502,
    "date": "2019-01-21",
    "job_id": "d8d4d94d-2be3-4a9e-9fe1-5f106d3142a5",
    "id": 1502,
    "full_name": "FAD Talon LAD",
    "company_id": 438,
    "employee_id": "regk8stg-04",
    "rank_id": 959,
    "rank_name": "Rank and file",
    "position_id": 1111,
    "position_name": "Software Engineer",
    "department_id": 1172,
    "department_name": "Engineering",
    "location_id": null,
    "location_name": null,
    "hours_per_day": "8.00",
    "active": true,
    "time_attendance_id": 1065,
    "team_id": null,
    "team_name": null,
    "team_role": "",
    "primary_location_id": 916,
    "primary_location_name": "Makati City",
    "secondary_location_id": null,
    "secondary_location_name": null,
    "timesheet_required": true,
    "overtime": true,
    "differential": true,
    "regular_holiday_pay": true,
    "special_holiday_pay": true,
    "holiday_premium_pay": true,
    "rest_day_pay": true,
    "shifts": [
        {
            "name": "Morning 8AM-5PM",
            "type": "fixed",
            "start_date": "2019-01-01",
            "start_time": "08:00",
            "end_time": "17:00",
            "total_hours": "09:00",
            "allowed_time_methods": [
                "Time Sheet"
            ],
            "affected_employees": [
                {
                    "id": 2349,
                    "schedule_id": 2307,
                    "type": "employee",
                    "rel_id": null,
                    "created_at": "2019-01-29 11:04:35",
                    "updated_at": "2019-01-29 11:04:35"
                }
            ],
            "breaks": [
                {
                    "id": 1319,
                    "schedule_id": 2307,
                    "type": "fixed",
                    "start": "12:00",
                    "end": "13:00",
                    "break_hours": "01:00"
                }
            ],
            "core_times": [],
            "shift_id": 1390
        }
    ],
    "default_shift": {
        "id": 885,
        "company_id": 438,
        "day_of_week": 1,
        "day_type": "regular",
        "work_start": "08:00:00",
        "work_break_start": "12:00:00",
        "work_break_end": "13:00:00",
        "work_end": "17:00:00"
    },
    "night_shift_settings": {
        "id": 425,
        "company_id": 438,
        "activated": true,
        "start": "22:00",
        "end": "06:00",
        "time_shift": "Carry over"
    },
    "hours_worked": [
        {
            "id": 61,
            "employee_id": 1502,
            "date": "2019-01-21",
            "type": "regular",
            "type_name": "Regular",
            "time": "04:00",
            "value": "4.00",
            "shift_id": 1390,
            "leave_type_id": null,
            "start_datetime": null,
            "end_datetime": null
        },
        {
            "id": 62,
            "employee_id": 1502,
            "date": "2019-01-21",
            "type": "night_shift",
            "type_name": "Night",
            "time": "04:00",
            "value": "4.00",
            "shift_id": 1390,
            "leave_type_id": null,
            "start_datetime": null,
            "end_datetime": null
        }
    ],
    "timesheet": [],
    "tardiness_rule": {
        "id": 195,
        "name": "Tardy",
        "company_id": 438,
        "minutes_tardy": 15,
        "minutes_to_deduct": 15,
        "affected_employees": [
            {
                "id": null,
                "name": "All employees",
                "type": "employee"
            }
        ],
        "updated_at": "2019-01-29 11:01"
    },
    "shift_dates": {
        "2019-01-21": {
            "rest_day": false,
            "holiday_type": null
        }
    }
}