{
    "employee_uid": 8124,
    "date": "2018-10-29",
    "pid": "c137579c-52dd-4bb7-9bfd-d31bf2f9dc0a",
    "id": 8124,
    "full_name": "Brad Jones Estrada",
    "company_id": 769,
    "employee_id": "Sep2018-006",
    "rank_id": 1134,
    "rank_name": "Rank",
    "position_id": 919,
    "position_name": "Staff",
    "department_id": 1156,
    "department_name": "HR",
    "location_id": null,
    "location_name": null,
    "hours_per_day": "12.00",
    "active": true,
    "time_attendance_id": 839,
    "team_id": 525,
    "team_name": "Engineering",
    "team_role": "",
    "primary_location_id": 866,
    "primary_location_name": "2018 Location",
    "secondary_location_id": null,
    "secondary_location_name": null,
    "timesheet_required": false,
    "overtime": true,
    "differential": true,
    "regular_holiday_pay": true,
    "special_holiday_pay": true,
    "holiday_premium_pay": true,
    "rest_day_pay": true,
    "shifts": [
        {
            "shift_id":  1,
            "name": "test",
            "type": "fixed",
            "start_date": "2018-03-04",
            "start_time": "08:00",
            "end_time": "17:00",
            "total_hours": "09:00",
            "allowed_time_methods": [],
            "affected_employees": [
                {
                    "id": 255,
                    "schedule_id": 2,
                    "type": "employee",
                    "rel_id": null,
                    "created_at": "2018-10-11 05:18:50",
                    "updated_at": "2018-10-11 05:18:50"
                }
            ],
            "breaks":  [{
                "break_hours": "01:00",
                "end": "13:00",
                "id": 52,
                "schedule_id": 94,
                "start": "12:00",
                "type": "fixed"
            }],
            "core_times": []
        }
    ],
    "default_shift": null,
    "night_shift_settings": {
        "id": 5,
        "company_id": 1,
        "activated": true,
        "start": "22:00",
        "end": "07:00",
        "time_shift": "Counter per hour"
    },
    "hours_worked": [ {
        "id": 29,
        "employee_id": 8124,
        "date": "2018-10-29",
        "type": "paid_leave",
        "type_name": "Paid Leave",
        "time": "08:00",
        "value": "8.00",
        "shift_id": 1,
        "start_datetime": "2018-10-29 08:00",
        "end_datetime": "2018-10-29 17:00"
      }],
    "timesheet": [
        
    ],
    "tardiness_rule": {
        "id": 98,
        "name": "Whatever",
        "company_id": 1,
        "minutes_tardy": 15,
        "minutes_to_deduct": 0,
        "affected_employees": [
            {
                "id": null,
                "name": "All employees",
                "type": "employee"
            }
        ],
        "updated_at": "2018-10-10 08:35"
    },
    "shift_dates": {
        "2018-10-29": {
            "rest_day": false,
            "holiday_type": null
        }
    }
}