{
    "employee_uid": 93,
    "date": "2018-10-29",
    "process_id": "9645abcb-c01a-4e9a-9efb-5c78ea007e7c",
    "id": 93,
    "full_name": "John Johnston",
    "company_id": 1,
    "employee_id": "485858",
    "rank_id": null,
    "rank_name": null,
    "position_id": null,
    "position_name": null,
    "department_id": null,
    "department_name": null,
    "location_id": 4,
    "location_name": "Primary",
    "hours_per_day": null,
    "active": true,
    "primary_location_id": 866,
    "primary_location_name": "2018 Location",
    "secondary_location_id": null,
    "secondary_location_name": null,
    "timesheet_required": false,
    "date_hired": "2018-11-01",
    "date_ended": null,
    "overtime": true,
    "differential": true,
    "regular_holiday_pay": true,
    "special_holiday_pay": true,
    "holiday_premium_pay": true,
    "rest_day_pay": true,
    "shifts": [
        {   "shift_id": 1,
            "name": "test",
            "type": "fixed",
            "start_date": "2018-03-04",
            "start_time": "07:00",
            "end_time": "19:00",
            "total_hours": "12:00",
            "allowed_time_methods": [],
            "affected_employees": [
                {
                    "id": 255,
                    "schedule_id": 2,
                    "type": "employee",
                    "rel_id": null,
                    "created_at": "2018-10-11 05:18:50",
                    "updated_at": "2018-10-11 05:18:50"
                }
            ],
            "breaks": [],
            "core_times": []
        }
    ],
    "default_shift": null,
    "night_shift_settings": {
        "id": 5,
        "company_id": 1,
        "activated": true,
        "start": "22:00",
        "end": "07:00",
        "time_shift": "Counter per hour"
    },
    "hours_worked": [],
    "timesheet": [],
    "tardiness_rule": {
        "id": 98,
        "name": "Whatever",
        "company_id": 1,
        "minutes_tardy": 15,
        "minutes_to_deduct": 0,
        "affected_employees": [
            {
                "id": null,
                "name": "All employees",
                "type": "employee"
            }
        ],
        "updated_at": "2018-10-10 08:35"
    },
    "shift_dates": {
        "2018-10-29": {
            "rest_day": false,
            "holiday_type": null
        }
    }
}
