{
    "employee_uid": 95,
    "date": "2018-10-29",
    "process_id": "24155454-311a-42a7-9286-01bcc91bcd92",
    "id": 95,
    "full_name": "Josh Peterson",
    "company_id": 1,
    "employee_id": "233333",
    "rank_id": null,
    "rank_name": null,
    "position_id": null,
    "position_name": null,
    "department_id": null,
    "department_name": null,
    "location_id": 4,
    "location_name": "Primary",
    "hours_per_day": null,
    "active": true,
    "primary_location_id": 866,
    "primary_location_name": "2018 Location",
    "secondary_location_id": null,
    "secondary_location_name": null,
    "timesheet_required": true,
    "overtime": true,
    "differential": true,
    "regular_holiday_pay": true,
    "special_holiday_pay": true,
    "holiday_premium_pay": true,
    "rest_day_pay": true,
    "shifts": [
        {
            "shift_id": 1,
            "name": "Night_Shift",
            "type": "fixed",
            "start_date": "2018-09-01",
            "start_time": "22:00",
            "end_time": "07:00",
            "total_hours": "9:00",
            "allowed_time_methods": [],
            "affected_employees": [
                {
                    "id": 256,
                    "schedule_id": 27,
                    "type": "employee",
                    "rel_id": null,
                    "created_at": "2018-10-11 05:34:39",
                    "updated_at": "2018-10-11 05:34:39"
                }
            ],
            "breaks": [
                {
                    "break_hours": "01:00",
                    "end": "02:00",
                    "id": 52,
                    "schedule_id": 94,
                    "start": "01:00",
                    "type": "fixed"
                }
            ],
            "core_times": []
        }
    ],
    "default_shift": null,
    "night_shift_settings": {
        "id": 5,
        "company_id": 1,
        "activated": true,
        "start": "22:00",
        "end": "07:00",
        "time_shift": "Counter per hour"
    },
    "hours_worked": [
        {
            "id": 29,
            "employee_id": 95,
            "date": "2018-10-30",
            "type": "overtime",
            "type_name": "overtime",
            "time": "02:00",
            "value": "2.00",
            "shift_id": 1,
            "start_datetime": "2018-10-30 00:00",
            "end_datetime": "2018-10-30 11:45"
        }
    ],
    "timesheet": [
        {
            "company_uid": "1",
            "employee_uid": 95,
            "state": true,
            "timestamp": 1540824300
        },
        {
            "company_uid": "1",
            "employee_uid": 95,
            "state": false,
            "timestamp": 1540871100
        }
    ],
    "tardiness_rule": {
        "id": 98,
        "name": "Whatever",
        "company_id": 1,
        "minutes_tardy": 1,
        "minutes_to_deduct": 0,
        "affected_employees": [
            {
                "id": null,
                "name": "All employees",
                "type": "employee"
            }
        ],
        "updated_at": "2018-10-10 08:35"
    },
    "shift_dates": {
        "2018-10-29": {
            "rest_day": false,
            "holiday_type": null
        },
        "2018-10-30": {
            "rest_day": false,
            "holiday_type": "RH"
        }
    }
}
