{
    "employee_uid": 93,
    "date": "2018-10-29",
    "process_id": "9645abcb-c01a-4e9a-9efb-5c78ea007e7c",
    "id": 93,
    "full_name": "John Johnston",
    "company_id": 1,
    "employee_id": "485858",
    "rank_id": null,
    "rank_name": null,
    "position_id": null,
    "position_name": null,
    "department_id": null,
    "department_name": null,
    "location_id": 4,
    "location_name": "Primary",
    "hours_per_day": null,
    "active": true,
    "primary_location_id": 866,
    "primary_location_name": "2018 Location",
    "secondary_location_id": null,
    "secondary_location_name": null,
    "timesheet_required": true,
    "overtime": true,
    "differential": true,
    "regular_holiday_pay": true,
    "special_holiday_pay": true,
    "holiday_premium_pay": true,
    "rest_day_pay": true,
    "shifts": [],
    "default_shift":{  
         "id":72,
         "company_id":11,
         "day_of_week":2,
         "day_type":"regular",
         "work_start":"08:00:00",
         "work_break_start":"12:00:00",
         "work_break_end":"13:00:00",
         "work_end":"17:00:00"
      } ,
    "night_shift_settings": {},
    "hours_worked": [],
    "timesheet": [
        {"company_uid": "1",
         "employee_uid": 93,
         "state": true,
         "timestamp": 1540776660},
         {"company_uid": "1",
            "employee_uid": 93,
            "state": false,
            "timestamp": 1540803600}
    ],
    "tardiness_rule": {
        "id": 98,
        "name": "Whatever",
        "company_id": 1,
        "minutes_tardy": 30,
        "minutes_to_deduct": 30,
        "affected_employees": [
            {
                "id": null,
                "name": "All employees",
                "type": "employee"
            }
        ],
        "updated_at": "2018-10-10 08:35"
    },
    "shift_dates": {
        "2018-10-29": {
            "rest_day": false,
            "holiday_type": null
        }
    }
}
