[{
    "id": 98,
    "name": "Whatever",
    "company_id": 1,
    "minutes_tardy": 15,
    "minutes_to_deduct": 0,
    "affected_employees": [
        {
            "id": null,
            "name": "All employees",
            "type": "employee"
        }
    ]
}]