{
    "date":"2021-11-30",
    "night_shift_settings":{
       "id":613,
       "company_id":613,
       "activated":true,
       "start":"22:00",
       "end":"06:00",
       "time_shift":"Counter per hour"
    },
    "tardiness_rule":{
       "id":300,
       "name":"Tardy(Store)",
       "company_id":613,
       "minutes_tardy":0,
       "minutes_to_deduct":0,
       "affected_employees":[
          {
             "id":3368,
             "name":"OPERATIONS",
             "type":"department"
          }
       ],
       "updated_at":"2021-07-21 14:47"
    },
    "id":32287,
    "user_id":33533,
    "status":"active",
    "employee_id":"21-1278",
    "company_id":613,
    "first_name":"Patrick",
    "middle_name":"Millera",
    "last_name":"Peco",
    "full_name":"Patrick Millera Peco",
    "department_id":3368,
    "department_name":"OPERATIONS",
    "position_id":9751,
    "position_name":"SERVICE CREW",
    "location_id":1100,
    "location_name":"JB TURBINA",
    "hours_per_day":"8",
    "date_hired":"2021-09-16",
    "date_ended": null,
    "payroll_group_id":1377,
    "team_id": null,
    "employment_type_id":1189,
    "employment_type_name":"PROBATIONARY",
    "timesheet_required":true,
    "overtime":true,
    "differential":true,
    "regular_holiday_pay":true,
    "special_holiday_pay":true,
    "holiday_premium_pay":true,
    "rest_day_pay":true,
    "employee_uid":32287,
    "rest_days":[
       
    ],
    "shifts":[
       {
          "name":"6:00-14:00",
          "type":"fixed",
          "start_date":"2021-01-01",
          "start_time":"06:00",
          "end_time":"14:00",
          "total_hours":"08:00",
          "allowed_time_methods":[
             "Bundy App",
             "Time Sheet",
             "Web Bundy",
             "Biometric"
          ],
          "affected_employees":[
             {
                "id":27345,
                "schedule_id":5166,
                "type":"employee",
                "rel_id":"None",
                "created_at":"2021-08-10 12:15:34",
                "updated_at":"2021-08-10 12:15:34"
             }
          ],
          "breaks":[
             
          ],
          "core_times":[
             
          ],
          "shift_id":1
       }
    ],
    "default_shift":{
       
    },
    "hours_worked":[
       {
          "id":263853,
          "employee_id":32287,
          "date":"2021-11-30",
          "type":"overtime",
          "type_name":"Overtime",
          "time":"14:00",
          "value":"14.00",
          "shift_id":"1",
          "leave_type_id":"None",
          "start_datetime":"2021-11-30 06:00",
          "end_datetime":"2021-11-30 20:00"
       }
    ],
    "tardiness_rules":[
       
    ],
    "shift_dates":{
       "2021-11-30":{
          "rest_day":false,
          "holiday_type":"RH"
       }
    },
    "timesheet":[
       {
          "employee_uid":32287.0,
          "company_uid":"613",
          "tags":[
             
          ],
          "state":true,
          "timestamp":1638223200.0
       },
       {
          "employee_uid":32287.0,
          "company_uid":"613",
          "tags":[
             
          ],
          "state":false,
          "timestamp":1638254640.0
       },
       {
          "employee_uid":32287.0,
          "company_uid":"613",
          "tags":[
             
          ],
          "state":true,
          "timestamp":1638258300.0
       },
       {
          "employee_uid":32287.0,
          "company_uid":"613",
          "tags":[
             
          ],
          "state":false,
          "timestamp":1638281820.0
       },
       {
          "employee_uid":32287.0,
          "company_uid":"613",
          "tags":[
             
          ],
          "state":true,
          "timestamp":1638310020.0
       },
       {
          "employee_uid":32287.0,
          "company_uid":"613",
          "tags":[
             
          ],
          "state":false,
          "timestamp":1638342840.0
       }
    ],
    "raw_timesheet":[
       {
          "employee_uid":32287.0,
          "company_uid":"613",
          "tags":[
             
          ],
          "state":true,
          "timestamp":1638223209.0
       },
       {
          "employee_uid":32287.0,
          "company_uid":"613",
          "tags":[
             
          ],
          "state":false,
          "timestamp":1638254693.0
       },
       {
          "employee_uid":32287.0,
          "company_uid":"613",
          "tags":[
             
          ],
          "state":true,
          "timestamp":1638258320.0
       },
       {
          "employee_uid":32287.0,
          "company_uid":"613",
          "tags":[
             
          ],
          "state":false,
          "timestamp":1638281864.0
       },
       {
          "employee_uid":32287.0,
          "company_uid":"613",
          "tags":[
             
          ],
          "state":true,
          "timestamp":1638310040.0
       },
       {
          "employee_uid":32287.0,
          "company_uid":"613",
          "tags":[
             
          ],
          "state":false,
          "timestamp":1638342854.0
       }
    ],
    "previous_shift":"None",
    "shift_lookup":{
       "1":""
    }
 }